{
    "m1_min_g(0|1)" : 2.0,
    "m1_max_g(0|1)" : 100.0,
    "m1_min_g2" : 1.0,
    "m2_min_g0" : 2.0,
    "m2_max_g0" : 100.0,
    "m2_min_g(1|2)" : 1.0,
    "mu_cos1_.*" : 1.0,
    "mu_cos2_.*" : 1.0,
    "sigma_cos1_g2" : 100.0,
    "sigma_cos2_g(1|2)" : 100.0
}
