[
  "../../data/dat/GW150914_GWTC-1.dat",
  "../../data/dat/GW151012_GWTC-1.dat",
  "../../data/dat/GW151226_GWTC-1.dat",
  "../../data/dat/GW170104_GWTC-1.dat",
  "../../data/dat/GW170608_GWTC-1.dat",
  "../../data/dat/GW170729_GWTC-1.dat",
  "../../data/dat/GW170809_GWTC-1.dat",
  "../../data/dat/GW170814_GWTC-1.dat",
  "../../data/dat/GW170817_GWTC-1.dat",
  "../../data/dat/GW170818_GWTC-1.dat",
  "../../data/dat/GW170823_GWTC-1.dat",
  "../../data/dat/GW190408_181802.dat",
  "../../data/dat/GW190412.dat",
  "../../data/dat/GW190413_052954.dat",
  "../../data/dat/GW190413_134308.dat",
  "../../data/dat/GW190421_213856.dat",
  "../../data/dat/GW190424_180648.dat",
  "../../data/dat/GW190425.dat",
  "../../data/dat/GW190503_185404.dat",
  "../../data/dat/GW190512_180714.dat",
  "../../data/dat/GW190513_205428.dat",
  "../../data/dat/GW190514_065416.dat",
  "../../data/dat/GW190517_055101.dat",
  "../../data/dat/GW190519_153544.dat",
  "../../data/dat/GW190521.dat",
  "../../data/dat/GW190521_074359.dat",
  "../../data/dat/GW190527_092055.dat",
  "../../data/dat/GW190602_175927.dat",
  "../../data/dat/GW190620_030421.dat",
  "../../data/dat/GW190630_185205.dat",
  "../../data/dat/GW190701_203306.dat",
  "../../data/dat/GW190706_222641.dat",
  "../../data/dat/GW190707_093326.dat",
  "../../data/dat/GW190708_232457.dat",
  "../../data/dat/GW190720_000836.dat",
  "../../data/dat/GW190727_060333.dat",
  "../../data/dat/GW190728_064510.dat",
  "../../data/dat/GW190731_140936.dat",
  "../../data/dat/GW190803_022701.dat",
  "../../data/dat/GW190814.dat",
  "../../data/dat/GW190828_063405.dat",
  "../../data/dat/GW190828_065509.dat",
  "../../data/dat/GW190910_112807.dat",
  "../../data/dat/GW190915_235702.dat",
  "../../data/dat/GW190924_021846.dat",
  "../../data/dat/GW190929_012149.dat",
  "../../data/dat/GW190930_133541.dat"
]
