{
    "rate_.*" : {
        "dist" : "uniform",
        "params" : {
            "min" : 0.0,
            "max" : 1000.0
        }
    },
    "alpha_pl.*" : {
        "dist" : "uniform",
        "params" : {
            "min" : -4.0,
            "max" : 6.0
        }
    },
    "beta_pl.*" : {
        "dist" : "uniform",
        "params" : {
            "min" : -4.0,
            "max" : 12.0
        }
    },
    "m_min_pl.*" : {
        "dist" : "uniform",
        "params" : {
            "min" : 2.0,
            "max" : 10.0
        }
    },
    "m_max_pl.*" : {
        "dist" : "uniform",
        "params" : {
            "min" : 30.0,
            "max" : 100.0
        }
    },
    "mass_mean1_g.*" : {
        "dist" : "uniform",
        "params" : {
            "min" : 20.0,
            "max" : 50.0
        }
    },
    "mass_mean2_g.*" : {
        "dist" : "uniform",
        "params" : {
            "min" : 20.0,
            "max" : 50.0
        }
    },
    "mass_sigma1_g.*" : {
        "dist" : "uniform",
        "params" : {
            "min" : 0.4,
            "max" : 10.0
        }
    },
    "mass_sigma2_g.*" : {
        "dist" : "uniform",
        "params" : {
            "min" : 0.4,
            "max" : 10.0
        }
    },
    "E_chi1_.*" : {
	    "dist" : "uniform",
	    "params" : {
	        "min" : 0.3,
	        "max" : 0.7
	    }
    },
    "Var_chi1_.*" : {
	    "dist" : "uniform",
	    "params" : {
	        "min" : 0.0,
	        "max" : 0.04
	    }
    },
    "E_chi2_.*" : {
	    "dist" : "uniform",
	    "params" : {
	        "min" : 0.3,
	        "max" : 0.7
	    }
    },
    "Var_chi2_.*" : {
	    "dist" : "uniform",
	    "params" : {
	        "min" : 0.0,
	        "max" : 0.04
	    }
    },
    "sigma_cos1_.*" : {
	    "dist" : "uniform",
	    "params" : {
	        "min" : 0.0,
	        "max" : 4.0
	    }
    },
    "sigma_cos2_.*" : {
	    "dist" : "uniform",
	    "params" : {
	        "min" : 0.0,
	        "max" : 4.0
	    }
    }
}
